{
  "status": "ok",
  "source": "bbc-news",
  "sortBy": "top",
  "articles": [
    {
      "author": "https://www.facebook.com/bbcnews",
      "title": "Amber Rudd: Trump travel ban could help IS",
      "description": "The home secretary warns that the president's travel restrictions are a \"propaganda opportunity\".",
      "url": "http://www.bbc.co.uk/news/uk-38814346",
      "urlToImage": "http://ichef-1.bbci.co.uk/news/1024/cpsprodpb/17263/production/_93891849_mediaitem93891847.jpg",
      "publishedAt": "2017-01-31T21:43:47Z"
    },
    {
      "author": "https://www.facebook.com/bbcnews",
      "title": "Trump cabinet: Democrats boycott health and treasury picks",
      "description": "Senate Democrats take a more combative posture amid votes on President Trump's cabinet picks.",
      "url": "http://www.bbc.co.uk/news/world-us-canada-38807783",
      "urlToImage": "http://ichef.bbci.co.uk/news/1024/cpsprodpb/6FF3/production/_93895682_mediaitem93895681.jpg",
      "publishedAt": "2017-01-31T21:47:18Z"
    },
    {
      "author": "https://www.facebook.com/bbcnews",
      "title": "Thousands of gay men pardoned for past convictions",
      "description": "Posthumous pardons are granted for offences that are no longer a crime on a \"momentous day\".",
      "url": "http://www.bbc.co.uk/news/uk-38814338",
      "urlToImage": "http://ichef-1.bbci.co.uk/news/1024/cpsprodpb/14987/production/_93895348_mediaitem93895347.jpg",
      "publishedAt": "2017-01-31T20:02:24Z"
    },
    {
      "author": "https://www.facebook.com/bbcnews",
      "title": "Cameron 'tried to get Mail editor sacked' over Brexit",
      "description": "Daily Mail proprietor told editor that Cameron pressed for him to be sacked during EU referendum.",
      "url": "http://www.bbc.co.uk/news/uk-38816692",
      "urlToImage": "http://ichef-1.bbci.co.uk/news/1024/cpsprodpb/BAFD/production/_93896874_dacrecameroncomposite2.jpg",
      "publishedAt": "2017-01-31T21:57:54Z"
    },
    {
      "author": "https://www.facebook.com/bbcnews",
      "title": "Hatton Garden robbery: Value of goods stolen rises to £25m",
      "description": "The five \"ringleaders\" of the 2015 robbery must pay the money back, or face longer sentences.",
      "url": "http://www.bbc.co.uk/news/uk-england-london-38806838",
      "urlToImage": "http://ichef-1.bbci.co.uk/news/1024/cpsprodpb/100FA/production/_85368756_85368755.jpg",
      "publishedAt": "2017-01-31T17:40:15Z"
    },
    {
      "author": "https://www.facebook.com/bbcnews",
      "title": "Harry Studley shooting: Emma Horseman not guilty of GBH",
      "description": "Emma Horseman cleared of aiding or abetting the shooting of toddler Harry Studley with an air rifle.",
      "url": "http://www.bbc.co.uk/news/uk-england-bristol-38807993",
      "urlToImage": "http://ichef.bbci.co.uk/news/1024/cpsprodpb/132D5/production/_93894587_harry2.jpg",
      "publishedAt": "2017-01-31T17:22:06Z"
    },
    {
      "author": "https://www.facebook.com/bbcnews",
      "title": "Breast tattoo service for cancer patients",
      "description": "Demand for a free monthly service to provide nipple tattoos for women who have undergone reconstructive breast surgery after cancer soars.",
      "url": "http://www.bbc.co.uk/news/uk-england-dorset-38814066",
      "urlToImage": "http://ichef.bbci.co.uk/news/1024/cpsprodpb/385D/production/_93892441_p04rfp2j.jpg",
      "publishedAt": null
    },
    {
      "author": "https://www.facebook.com/bbcnews",
      "title": "Breast tattoo service for cancer patients",
      "description": "Demand for a free monthly service to provide nipple tattoos for women who have undergone reconstructive breast surgery after cancer soars.",
      "url": "http://www.bbc.co.uk/news/uk-england-dorset-38814066",
      "urlToImage": "http://ichef-1.bbci.co.uk/news/1024/cpsprodpb/385D/production/_93892441_p04rfp2j.jpg",
      "publishedAt": null
    },
    {
      "author": "BBC Sport",
      "title": "Transfer deadline day: Saints sign Italy striker",
      "description": "Saints sign Italy striker Gabbiadini. The clock is ticking down until the January transfer window closes at 23:00 GMT. All the moves as they happen - and debate the deals on #bbcdeadlineday.",
      "url": "http://www.bbc.co.uk/sport/live/football/38571746",
      "urlToImage": "http://newsimg.bbc.co.uk/media/images/67165000/jpg/_67165916_67165915.jpg",
      "publishedAt": "2017-01-31T22:27:11Z"
    },
    {
      "author": "https://www.facebook.com/bbcnews",
      "title": "Doctor Who: Billie Piper says it's time to cast a woman",
      "description": "Former Doctor Who star Billie Piper says it would be \"a snub\" if the role did not go to a woman.",
      "url": "http://www.bbc.co.uk/news/entertainment-arts-38801228",
      "urlToImage": "http://ichef.bbci.co.uk/news/1024/cpsprodpb/3D03/production/_93891651_billie-piper-getty.jpg",
      "publishedAt": "2017-01-31T14:20:51Z"
    }
  ]
}